1442851444.36,19.322052
1442851444.86,19.3270874
1442851445.36,19.32461547
1442851445.86,19.32342529
1442851446.36,19.32394409
1442851446.86,19.32061767
1442851447.36,19.32089233
1442851447.86,19.32598876
1442851448.37,19.31921386
1442851448.9,19.31872558
1442851449.41,19.32022094
1442851449.91,19.3227539
1442851450.41,19.32006835
1442851450.91,19.31683349
1442851451.41,19.30935668
1442851451.91,19.30136108
1442851452.42,19.30273437
1442851452.92,19.29968261
1442851453.42,19.30697631
1442851453.92,19.30221557
1442851454.42,19.28930664
1442851454.92,19.29238891
1442851455.42,19.28634643
1442851455.92,19.28781127
1442851456.43,19.28201293
1442851456.93,19.28100585
1442851457.43,19.27487182
1442851457.93,19.26870727
1442851458.43,19.27151489
1442851458.93,19.26504516
1442851459.43,19.26812744
1442851459.93,19.2612915
1442851460.44,19.25198364
1442851460.94,19.24426269
1442851461.44,19.24264526
1442851461.94,19.2458496
1442851462.44,19.2395935
1442851462.95,19.23498535
1442851463.45,19.228302
1442851463.95,19.23498535
1442851464.45,19.22668457
1442851464.95,19.22195434
1442851465.45,19.21328735
1442851466.23,19.20495605
1442851466.45,19.20071411
1442851467.0,19.18103027
1442851467.51,19.17321777
1442851467.96,19.16662597
1442851468.55,19.15997314
1442851469.03,19.15734863
1442851469.46,19.15405273
1442851469.96,19.15267944
1442851470.48,19.14672851
1442851470.97,19.14215087
1442851471.47,19.13623046
1442851471.97,19.14352416
1442851472.49,19.13867187
1442851472.98,19.13623046
1442851473.5,19.13232421
1442851473.98,19.1262207
1442851474.52,19.11907958
1442851475.0,19.11569213
1442851475.48,19.1100769
1442851475.98,19.1038208
1442851476.57,19.09954833
1442851477.01,19.09658813
1442851477.48,19.09362792
1442851477.99,19.08615112
1442851478.49,19.08596801
1442851479.06,19.06536865
1442851479.53,19.05831909
1442851479.99,19.05154418
1442851480.49,19.0498352
1442851480.99,19.04702758
1442851481.6,19.04406738
1442851482.06,19.04507446
1442851482.55,19.03625488
1442851483.03,19.03997802
1442851483.51,19.04492187
1442851484.0,19.04022216
1442851484.5,19.034729
1442851485.01,19.02966308
1442851485.54,19.03030395
1442851486.01,19.02633666
1442851486.51,19.02252197
1442851487.05,19.0192871
1442851487.61,19.01641845
1442851488.03,19.01504516
1442851488.52,19.01242065
1442851489.02,19.01046752
1442851489.57,19.00741577
1442851490.02,19.0050354
1442851490.52,19.00112915
1442851491.07,19.00064086
1442851491.62,18.99859619
1442851492.05,19.00045776
1442851492.53,18.99826049
1442851493.03,18.99230957
1442851493.53,18.99755859
1442851494.03,18.99368286
1442851494.53,18.99008178
1442851495.03,18.99102783
1442851495.53,18.98974609
1442851496.04,18.98873901
1442851496.64,18.98922729
1442851497.12,18.98605346
1442851497.54,18.98605346
1442851498.04,18.98654174
1442851498.6,18.98764038
1442851499.08,18.98739624
1442851499.55,18.98620605
1442851500.05,18.98703002
1442851500.55,18.99093627
1442851501.17,18.99304199
1442851501.6,18.98788452
1442851502.08,18.98788452
1442851502.55,18.98501586
1442851503.05,18.98449707
1442851503.65,18.9894104
1442851504.12,18.99102783
1442851504.63,18.99026489
1442851505.06,18.98974609
1442851505.56,18.99093627
1442851506.06,18.99179077
1442851506.59,18.99212646
1442851507.13,18.99304199
1442851507.59,18.99026489
1442851508.07,18.99816894
1442851508.57,18.9967041
1442851509.07,18.99572753
1442851509.65,18.99774169
1442851510.14,18.99502563
1442851510.58,19.00112915
1442851511.08,19.00369262
1442851511.58,19.00485229
1442851512.08,19.00723266
1442851512.63,19.00350952
1442851513.18,19.00604248
1442851513.63,19.00979614
1442851514.14,19.01315307
1442851514.59,19.01519775
1442851515.09,19.01504516
1442851515.59,19.01708984
1442851516.09,19.0192871
1442851516.65,19.02182006
1442851517.16,19.02081298
1442851517.65,19.02746582
1442851518.12,19.02700805
1442851518.66,19.02999877
1442851519.12,19.02780151
1442851519.62,19.0269165
1442851520.11,19.03176879
