1423841352.4,21.76
1423841352.46,21.78
1423841352.51,21.78
1423841352.57,21.78
1423841352.62,21.76
1423841352.68,21.76
1423841352.74,21.76
1423841352.79,21.78
1423841352.85,21.78
1423841352.9,21.76
1423841352.96,21.76
1423841353.02,21.77
1423841353.07,21.78
1423841353.13,21.78
1423841353.19,21.76
1423841353.24,21.77
1423841353.3,21.78
1423841353.35,21.78
1423841353.41,21.79
1423841353.47,21.77
1423841353.52,21.76
1423841353.58,21.77
1423841353.63,21.78
1423841353.69,21.78
1423841353.75,21.77
1423841353.8,21.76
1423841353.86,21.76
1423841353.91,21.78
1423841353.97,21.79
1423841354.03,21.78
1423841354.08,21.77
1423841354.14,21.77
1423841354.26,21.78
1423841354.31,21.78
1423841354.37,21.78
1423841354.42,21.76
1423841354.48,21.75
1423841354.54,21.77
1423841354.59,21.78
1423841354.65,21.79
1423841354.71,21.78
1423841354.76,21.76
1423841354.82,21.76
1423841354.87,21.78
1423841354.93,21.77
1423841354.99,21.78
1423841355.04,21.75
1423841355.1,21.76
1423841355.16,21.78
1423841355.21,21.78
